{
  "id": 1,
  "user_id": 1,
  "title": "Project Outline 1",
  "supervisor": "Admin",
  "email": "admin@example.com",
  "room": "Room 1",
  "degree": "Degree 1",
  "category": "Category 1",
  "outline": "Outline 1",
  "timestamp": 1588065889
}
