<svg width="41" height="38" viewBox="0 0 41 38" fill="none" xmlns="http://www.w3.org/2000/svg">
<path d="M40.2678 20.7678C41.2441 19.7915 41.2441 18.2085 40.2678 17.2322L24.3579 1.32233C23.3816 0.34602 21.7986 0.34602 20.8223 1.32233C19.846 2.29864 19.846 3.88155 20.8223 4.85786L34.9645 19L20.8223 33.1421C19.846 34.1184 19.846 35.7014 20.8223 36.6777C21.7986 37.654 23.3816 37.654 24.3579 36.6777L40.2678 20.7678ZM-4.13901e-09 21.5L38.5 21.5L38.5 16.5L4.13901e-09 16.5L-4.13901e-09 21.5Z" fill="#026B9B"/>
</svg>
