<svg width="34" height="31" viewBox="0 0 34 31" fill="none" xmlns="http://www.w3.org/2000/svg">
<g clip-path="url(#clip0)">
<path d="M21.6899 11.2314C21.2501 11.2314 20.8936 11.5564 20.8936 11.9574V25.6788C20.8936 26.0795 21.2501 26.4047 21.6899 26.4047C22.1297 26.4047 22.4861 26.0795 22.4861 25.6788V11.9574C22.4861 11.5564 22.1297 11.2314 21.6899 11.2314Z" fill="black"/>
<path d="M12.294 11.2314C11.8542 11.2314 11.4977 11.5564 11.4977 11.9574V25.6788C11.4977 26.0795 11.8542 26.4047 12.294 26.4047C12.7338 26.4047 13.0903 26.0795 13.0903 25.6788V11.9574C13.0903 11.5564 12.7338 11.2314 12.294 11.2314Z" fill="black"/>
<path d="M5.4463 9.229V27.1159C5.4463 28.1732 5.87148 29.166 6.61423 29.8784C7.35356 30.5928 8.38247 30.9983 9.45927 31H24.5246C25.6017 30.9983 26.6306 30.5928 27.3696 29.8784C28.1124 29.166 28.5376 28.1732 28.5376 27.1159V9.229C30.014 8.87167 30.9708 7.57112 30.7733 6.18975C30.5755 4.80866 29.285 3.77554 27.7572 3.77526H23.6804V2.86777C23.6851 2.10462 23.3542 1.37183 22.7616 0.832719C22.1691 0.293896 21.3642 -0.00614361 20.5272 9.53895e-05H13.4567C12.6197 -0.00614361 11.8147 0.293896 11.2222 0.832719C10.6297 1.37183 10.2988 2.10462 10.3034 2.86777V3.77526H6.22668C4.69888 3.77554 3.40839 4.80866 3.21057 6.18975C3.01307 7.57112 3.96981 8.87167 5.4463 9.229ZM24.5246 29.548H9.45927C8.09787 29.548 7.0388 28.4817 7.0388 27.1159V9.29281H26.9451V27.1159C26.9451 28.4817 25.886 29.548 24.5246 29.548ZM11.8959 2.86777C11.8906 2.48974 12.0536 2.12589 12.3479 1.85903C12.6418 1.59218 13.0418 1.44556 13.4567 1.45208H20.5272C20.9421 1.44556 21.3421 1.59218 21.636 1.85903C21.9302 2.12561 22.0932 2.48974 22.0879 2.86777V3.77526H11.8959V2.86777ZM6.22668 5.22724H27.7572C28.5488 5.22724 29.1904 5.81229 29.1904 6.53403C29.1904 7.25577 28.5488 7.84082 27.7572 7.84082H6.22668C5.4351 7.84082 4.79343 7.25577 4.79343 6.53403C4.79343 5.81229 5.4351 5.22724 6.22668 5.22724Z" fill="black"/>
<path d="M16.9919 11.2314C16.5521 11.2314 16.1956 11.5564 16.1956 11.9574V25.6788C16.1956 26.0795 16.5521 26.4047 16.9919 26.4047C17.4317 26.4047 17.7881 26.0795 17.7881 25.6788V11.9574C17.7881 11.5564 17.4317 11.2314 16.9919 11.2314Z" fill="black"/>
</g>
<defs>
<clipPath id="clip0">
<rect width="34" height="31" fill="white"/>
</clipPath>
</defs>
</svg>
