<svg width="29" height="31" viewBox="0 0 29 31" fill="none" xmlns="http://www.w3.org/2000/svg">
<g clip-path="url(#clip0)">
<path d="M26.7659 19.4739C26.3669 19.4739 26.0436 19.8195 26.0436 20.2459V27.101C26.0422 28.3797 25.0731 29.416 23.8769 29.4172H3.61125C2.41502 29.416 1.44591 28.3797 1.4445 27.101V6.98188C1.44591 5.70346 2.41502 4.66721 3.61125 4.6657H10.024C10.423 4.6657 10.7463 4.32009 10.7463 3.89364C10.7463 3.4675 10.423 3.12158 10.024 3.12158H3.61125C1.61773 3.12399 0.00225703 4.85088 0 6.98188V27.1013C0.00225703 29.2323 1.61773 30.9592 3.61125 30.9616H23.8769C25.8704 30.9592 27.4859 29.2323 27.4881 27.1013V20.2459C27.4881 19.8195 27.1648 19.4739 26.7659 19.4739Z" fill="#444444"/>
<path d="M27.2021 1.13506C25.9328 -0.221777 23.8749 -0.221777 22.6056 1.13506L9.72021 14.9091C9.6319 15.0035 9.56814 15.1205 9.53485 15.249L7.84038 21.7883C7.7707 22.0564 7.84151 22.3435 8.02546 22.5404C8.20969 22.7371 8.47828 22.8128 8.72909 22.7386L14.8465 20.927C14.9667 20.8914 15.0761 20.8232 15.1645 20.7288L28.0496 6.95447C29.3169 5.59672 29.3169 3.39876 28.0496 2.04102L27.2021 1.13506ZM11.2939 15.4109L21.8396 4.13765L25.2407 7.77327L14.6947 19.0466L11.2939 15.4109ZM10.6146 16.8682L13.3317 19.7731L9.57322 20.8862L10.6146 16.8682ZM27.0283 5.86272L26.2623 6.68153L22.8609 3.04561L23.6272 2.2268C24.3322 1.47314 25.4754 1.47314 26.1805 2.2268L27.0283 3.13277C27.7322 3.88733 27.7322 5.10846 27.0283 5.86272Z" fill="#444444"/>
</g>
<defs>
<clipPath id="clip0">
<rect width="29" height="31" fill="white"/>
</clipPath>
</defs>
</svg>
